Division,WeightClassKg,Place,Name,Team,BodyweightKg,Best3SquatKg,Best3BenchKg,Best3DeadliftKg,TotalKg,Equipment,Event,Sex
Boys,51.71,1,Andrew Paredez,Big Spring,51.07,158.76,83.91,172.37,415.04,Single-ply,SBD,M
Boys,51.71,2,Jeremiah Ramirez,Levelland,49.17,138.35,77.11,165.56,381.02,Single-ply,SBD,M
Boys,51.71,3,Seth Barton,Midland Greenwood,50.89,129.27,77.11,154.22,360.61,Single-ply,SBD,M
Boys,51.71,4,Brady Robbins,Midland Greenwood,48.99,138.35,77.11,140.61,356.07,Single-ply,SBD,M
Boys,51.71,5,Ty Diaz,Andrews,50.17,122.47,61.23,154.22,337.93,Single-ply,SBD,M
Boys,51.71,6,Marc Celaya,Fort Stockton,51.53,122.47,72.57,142.88,337.93,Single-ply,SBD,M
Boys,51.71,7,Chris Ortiz,Pecos,49.8,117.93,70.31,136.08,324.32,Single-ply,SBD,M
Boys,51.71,8,Zach Alvarez,Fort Stockton,51.71,115.67,68.04,129.27,312.98,Single-ply,SBD,M
Boys,51.71,9,Randy Jones,Seminole,50.62,122.47,52.16,124.74,299.37,Single-ply,SBD,M
Boys,51.71,10,Rafael Corralez,Fort Stockton,51.62,117.93,63.5,117.93,299.37,Single-ply,SBD,M
Boys,55.79,1,Tyler Nairn,Big Spring,54.52,206.38,99.79,170.1,476.27,Single-ply,SBD,M
Boys,59.87,2,Daniel Sánchez,Midland Greenwood,56.02,149.69,86.18,156.49,392.36,Single-ply,SBD,M
Boys,55.79,3,Noel Ybarra,Pecos,54.98,140.61,77.11,149.69,367.41,Single-ply,SBD,M
Boys,55.79,4,Efren Miranda,Levelland,55.43,136.08,68.04,147.42,351.53,Single-ply,SBD,M
Boys,55.79,5,Xzavier Estrada,Andrews,54.61,136.08,72.57,136.08,344.73,Single-ply,SBD,M
Boys,55.79,6,Dakota Anaya,Perryton,55.43,122.47,65.77,154.22,342.46,Single-ply,SBD,M
Boys,55.79,7,Ezekiel Cuellar,Perryton,54.79,124.74,70.31,145.15,340.19,Single-ply,SBD,M
Boys,55.79,8,Kordell Lawerence,Dalhart,54.79,124.74,65.77,142.88,333.39,Single-ply,SBD,M
Boys,55.79,9,Christopher Gonzalez,Andrews,54.88,113.4,65.77,142.88,322.05,Single-ply,SBD,M
Boys,55.79,10,Brysan Garrard,Vernon,55.34,129.27,63.5,117.93,310.71,Single-ply,SBD,M
Boys,59.87,1,Zachary Salazar,Lamesa,58.51,158.76,95.25,167.83,421.84,Single-ply,SBD,M
Boys,59.87,2,Daniel Hernandez,Pecos,59.6,151.95,90.72,167.83,410.5,Single-ply,SBD,M
Boys,59.87,3,Isiah Petralba,Fort Stockton,59.33,158.76,92.99,156.49,408.23,Single-ply,SBD,M
Boys,59.87,4,Emilio Miranda,Levelland,58.24,149.69,70.31,161.03,381.02,Single-ply,SBD,M
Boys,67.13,5,Alex Lugo,Perryton,60.1,131.54,86.18,161.03,378.75,Single-ply,SBD,M
Boys,59.87,6,Nathaniel Garcia,Fort Stockton,59.15,129.27,81.65,163.29,374.21,Single-ply,SBD,M
Boys,59.87,7,Justin Ormsby,Big Spring,59.6,140.61,68.04,151.95,360.61,Single-ply,SBD,M
Boys,59.87,8,Nick Acosta,Seminole,58.06,124.74,90.72,142.88,358.34,Single-ply,SBD,M
Boys,59.87,9,Luke Krueger,Snyder,57.52,127.01,63.5,151.95,342.46,Single-ply,SBD,M
Boys,59.87,10,Isaiah Marquez #2,Seminole,58.15,102.06,72.57,149.69,324.32,Single-ply,SBD,M
Boys,59.87,DQ,Kody Collins,Monahans,58.6,133.81,72.57,122.47,,Single-ply,SBD,M
Boys,59.87,DQ,Nathaniel Martinez,Levelland,58.79,,70.31,142.88,,Single-ply,SBD,M
Boys,74.84,1,Andrew Alvidrez,Seminole,67.31,254.01,149.69,267.62,671.32,Single-ply,SBD,M
Boys,67.13,2,Jon Naylor,Midland Greenwood,67.13,208.65,113.4,185.97,508.02,Single-ply,SBD,M
Boys,67.13,3,Christian Arzabala,Andrews,65.86,188.24,102.06,197.31,487.61,Single-ply,SBD,M
Boys,67.13,4,John Leija,Vernon,66.32,161.03,113.4,181.44,455.86,Single-ply,SBD,M
Boys,67.13,5,Jacob Jackson,Vernon,65.05,165.56,106.59,172.37,444.52,Single-ply,SBD,M
Boys,67.13,6,Brendan Garza,Snyder,66.22,149.69,90.72,181.44,421.84,Single-ply,SBD,M
Boys,67.13,7,Kaiden Summerville,Perryton,62.69,158.76,92.99,158.76,410.5,Single-ply,SBD,M
Boys,67.13,8,Oscar Solís,Pecos,65.23,147.42,111.13,147.42,405.97,Single-ply,SBD,M
Boys,67.13,9,Britin Garcia,Andrews,62.32,136.08,72.57,161.03,369.68,Single-ply,SBD,M
Boys,67.13,DQ,Manuel Cordova,Pecos,65.95,,,,,Single-ply,SBD,M
Boys,74.84,1,Elliot Hanna,Levelland,70.13,219.99,127.01,244.94,591.94,Single-ply,SBD,M
Boys,74.84,2,Jarric Weber,Borger,73.75,195.04,124.74,219.99,539.77,Single-ply,SBD,M
Boys,74.84,3,Tyler Hastings,Levelland,72.57,188.24,104.33,188.24,480.81,Single-ply,SBD,M
Boys,74.84,4,Isaiah Perez,Dalhart,74.3,181.44,111.13,181.44,474,Single-ply,SBD,M
Boys,74.84,5,Aldo Ramirez,Perryton,74.57,197.31,99.79,176.9,474,Single-ply,SBD,M
Boys,74.84,6,Oscar Sanchez,Fort Stockton,74.21,167.83,120.2,174.63,462.66,Single-ply,SBD,M
Boys,82.1,7,Juan Gonzalez,Fort Stockton,74.93,172.37,102.06,172.37,446.79,Single-ply,SBD,M
Boys,74.84,8,Garron Weber,Borger,70.58,151.95,104.33,183.7,439.98,Single-ply,SBD,M
Boys,74.84,9,Julio Sanchez #3,Perryton,73.21,163.29,106.59,167.83,437.72,Single-ply,SBD,M
Boys,74.84,DQ,Enrique Barron,Snyder,74.12,156.49,,,,Single-ply,SBD,M
Boys,82.1,1,Jose Cornejo,Andrews,81.01,238.14,136.08,249.48,623.69,Single-ply,SBD,M
Boys,82.1,2,Tyler Baker,Borger,80.29,188.24,140.61,213.19,542.04,Single-ply,SBD,M
Boys,82.1,3,Blake Osborn,Midland Greenwood,80.01,204.12,140.61,192.78,537.51,Single-ply,SBD,M
Boys,82.1,4,Jake Strickland,Monahans,81.47,208.65,122.47,188.24,519.36,Single-ply,SBD,M
Boys,82.1,5,Paul Perez #3,Levelland,77.38,201.85,122.47,188.24,512.56,Single-ply,SBD,M
Boys,82.1,6,Marcos Rodriguez,Fort Stockton,80.83,204.12,117.93,190.51,512.56,Single-ply,SBD,M
Boys,82.1,7,Draven Martinez,Lamesa,79.29,190.51,106.59,213.19,510.29,Single-ply,SBD,M
Boys,82.1,8,Jaiden Puga,Dalhart,78.29,190.51,136.08,181.44,508.02,Single-ply,SBD,M
Boys,82.1,9,Carlos Hinojosa,Lamesa,80.01,185.97,106.59,195.04,487.61,Single-ply,SBD,M
Boys,82.1,DQ,Reyes Lujan,Dalhart,80.47,188.24,115.67,170.1,,Single-ply,SBD,M
Boys,82.1,DQ,Brent McCallon,Vernon,79.02,181.44,88.45,181.44,,Single-ply,SBD,M
Boys,82.1,DQ,Blake Narrell,Andrews,81.19,,,,,Single-ply,SBD,M
Boys,89.81,1,Matthew Seibert,Pecos,87,206.38,133.81,242.67,582.87,Single-ply,SBD,M
Boys,89.81,2,Miguel Rangel,Borger,89.54,217.72,142.88,222.26,582.87,Single-ply,SBD,M
Boys,89.81,3,Sean Strickland,Midland Greenwood,88.36,210.92,140.61,217.72,569.26,Single-ply,SBD,M
Boys,89.81,4,Meshach Mendoza,Levelland,86.18,179.17,133.81,208.65,521.63,Single-ply,SBD,M
Boys,89.81,5,Larry Iglesias,Lamesa,88.54,199.58,117.93,197.31,514.83,Single-ply,SBD,M
Boys,89.81,6,Junior Lawhon,Sweetwater,85.73,204.12,117.93,176.9,498.95,Single-ply,SBD,M
Boys,89.81,7,Mason Lane,Big Spring,86.27,183.7,102.06,208.65,494.42,Single-ply,SBD,M
Boys,89.81,8,Zack Salazar,Levelland,84.91,161.03,117.93,210.92,489.88,Single-ply,SBD,M
Boys,89.81,9,Cody Fuentes,Monahans,86.45,183.7,104.33,190.51,478.54,Single-ply,SBD,M
Boys,89.81,DQ,Fernando Hernandez,Pecos,85.28,204.12,117.93,201.85,,Single-ply,SBD,M
Boys,89.81,DQ,Bradley Coward,Borger,88.9,174.63,138.35,158.76,,Single-ply,SBD,M
Boys,89.81,DQ,Sam Tarin,Pecos,84.64,197.31,,,,Single-ply,SBD,M
Boys,99.79,1,Paul Ochoa,Levelland,95.44,260.82,172.37,224.53,657.71,Single-ply,SBD,M
Boys,99.79,2,Felix Rodriguez,Midland Greenwood,97.52,244.94,154.22,210.92,610.08,Single-ply,SBD,M
Boys,99.79,3,Trevor Methvin,Vernon,97.89,210.92,108.86,244.94,564.72,Single-ply,SBD,M
Boys,99.79,4,Ezequiel Porras,Borger,97.25,210.92,120.2,195.04,526.17,Single-ply,SBD,M
Boys,99.79,5,Sam Prewit,Pecos,97.79,206.38,111.13,208.65,526.17,Single-ply,SBD,M
Boys,99.79,6,Raymond Delgado,Sweetwater,92.71,188.24,129.27,197.31,514.83,Single-ply,SBD,M
Boys,99.79,7,Dylan Jimenez,Sweetwater,97.25,204.12,108.86,199.58,512.56,Single-ply,SBD,M
Boys,99.79,8,Andrew Vasquez,Perryton,98.79,217.72,113.4,181.44,512.56,Single-ply,SBD,M
Boys,99.79,9,Alex Johnson #7,Big Spring,98.07,204.12,138.35,163.29,505.76,Single-ply,SBD,M
Boys,99.79,DQ,Abraham Dominguez,Fort Stockton,98.7,192.78,117.93,188.24,,Single-ply,SBD,M
Boys,99.79,DQ,Duston Vargas,Andrews,91.63,,,,,Single-ply,SBD,M
Boys,99.79,DQ,Paul Mata,Snyder,97.43,197.31,115.67,,,Single-ply,SBD,M
Boys,109.77,1,Esteban López,Andrews,106.78,235.87,140.61,238.14,614.62,Single-ply,SBD,M
Boys,109.77,2,Alex King,Levelland,106.96,208.65,145.15,244.94,598.74,Single-ply,SBD,M
Boys,109.77,3,Jacob Harris,Dalhart,100.7,238.14,111.13,233.6,582.87,Single-ply,SBD,M
Boys,109.77,4,Ben Madrid,Pecos,103.87,210.92,136.08,235.87,582.87,Single-ply,SBD,M
Boys,109.77,5,Gustavo Navarrete,Perryton,106.96,217.72,122.47,217.72,557.92,Single-ply,SBD,M
Boys,109.77,6,Justin Rayos,Pecos,107.5,217.72,136.08,204.12,557.92,Single-ply,SBD,M
Boys,109.77,7,David Goodwin,Fort Stockton,103.06,208.65,127.01,213.19,548.85,Single-ply,SBD,M
Boys,109.77,8,Micah Melton,Andrews,104.69,210.92,122.47,215.46,548.85,Single-ply,SBD,M
Boys,109.77,9,Ty Crabtree,Monahans,109.23,195.04,136.08,213.19,544.31,Single-ply,SBD,M
Boys,109.77,DQ,Levi Molina,Big Spring,107.23,213.19,120.2,185.97,,Single-ply,SBD,M
Boys,109.77,DQ,Nathan Schneider,Big Spring,108.77,254.01,,,,Single-ply,SBD,M
Boys,124.74,1,Eldon Niblett,Midland Greenwood,113.67,274.42,142.88,240.4,657.71,Single-ply,SBD,M
Boys,124.74,2,Oscar Gutierrez,Monahans,118.93,285.76,145.15,219.99,650.91,Single-ply,SBD,M
Boys,124.74,3,Brenon Brunson,Snyder,116.12,256.28,147.42,226.8,630.49,Single-ply,SBD,M
Boys,124.74,4,Dalton Torres,Dalhart,123.47,235.87,108.86,244.94,589.67,Single-ply,SBD,M
Boys,124.74,5,Chris LeBeouf,Pecos,114.12,222.26,147.42,215.46,585.13,Single-ply,SBD,M
Boys,124.74,6,Luis Valenzuela,Andrews,115.58,219.99,127.01,238.14,585.13,Single-ply,SBD,M
Boys,124.74,7,Justin Barrera,Dalhart,122.11,233.6,113.4,204.12,551.11,Single-ply,SBD,M
Boys,124.74,DQ,Nelson McGrew,Pecos,115.85,222.26,102.06,215.46,,Single-ply,SBD,M
Boys,124.74,DQ,Kyle Rickman,Seminole,121.02,215.46,136.08,199.58,,Single-ply,SBD,M
Boys,124.74,DQ,Zane Sorrells,Snyder,112.58,215.46,106.59,,,Single-ply,SBD,M
Boys,124.74,DQ,Chris Simmons,Levelland,121.56,,,,,Single-ply,SBD,M
Boys,124.74,DQ,Casey Stewart,Dalhart,117.66,229.06,120.2,,,Single-ply,SBD,M
Boys,124.74+,1,Spencer Holsey,Borger,129.91,288.03,154.22,285.76,728.02,Single-ply,SBD,M
Boys,124.74+,2,Jesus Rodriguez,Midland Greenwood,125.74,265.35,151.95,235.87,653.17,Single-ply,SBD,M
Boys,124.74+,3,Nick Conner,Big Spring,132.27,260.82,151.95,204.12,616.89,Single-ply,SBD,M
Boys,124.74+,4,Brandon Rowand,Levelland,155.58,244.94,142.88,226.8,614.62,Single-ply,SBD,M
Boys,124.74+,5,Dominick Puente,Levelland,151.77,263.08,129.27,213.19,605.55,Single-ply,SBD,M
Boys,124.74+,6,Anthony Anzuldua,Dalhart,128.91,238.14,138.35,215.46,591.94,Single-ply,SBD,M
Boys,124.74+,7,Seth Jaramillo,Andrews,127.82,222.26,122.47,206.38,551.11,Single-ply,SBD,M
Boys,124.74+,8,Alex Holguin,Monahans,128.37,226.8,117.93,197.31,542.04,Single-ply,SBD,M
Boys,124.74+,9,Francisco Esparza,Snyder,137.71,199.58,115.67,210.92,526.17,Single-ply,SBD,M
Boys,124.74+,DQ,Derek Gusman,Big Spring,151.95,233.6,117.93,210.92,,Single-ply,SBD,M
Boys,124.74+,DQ,Manuel Martinez,Levelland,127.91,215.46,113.4,206.38,,Single-ply,SBD,M
Boys,124.74+,DQ,Trent Cottrell,Snyder,135.17,213.19,129.27,,,Single-ply,SBD,M
