Place,Name,BirthYear,Sex,BodyweightKg,Squat1Kg,Squat2Kg,Squat3Kg,Best3SquatKg,Bench1Kg,Bench2Kg,Bench3Kg,Best3BenchKg,Deadlift1Kg,Deadlift2Kg,Deadlift3Kg,Best3DeadliftKg,TotalKg,Equipment,WeightClassKg,Event,Division
1,Kate McKenna,,F,55.2,77.5,82.5,85,85,52.5,55,-57.5,55,100,107.5,-110,107.5,247.5,Raw,57,SBD,Open
1,Ellie McLean,,F,62.5,100,-107.5,107.5,107.5,60,-65,-65,60,137.5,140,-142.5,140,307.5,Raw,63,SBD,Open
2,Jules Boyes,,F,62.9,120,130,-140,130,50,-55,55,55,-105,110,122.5,122.5,307.5,Raw,63,SBD,Open
3,Molly Star,,F,61.9,-105,105,-110,105,57.5,60,-65,60,125,130,135,135,300,Raw,63,SBD,Open
4,Alice Xu,,F,62.2,92.5,-97.5,100,100,45,50,-52.5,50,125,132.5,-140,132.5,282.5,Raw,63,SBD,Open
5,Leah Bound,,F,62.2,70,80,-82.5,80,50,55,-60,55,95,102.5,110,110,245,Raw,63,SBD,Open
6,Sharna Fitzpatrick,,F,59.8,60,-65,67.5,67.5,-50,50,-52.5,50,90,95,100,100,217.5,Raw,63,SBD,Open
1,Casey Hornby,,F,70.4,115,125,-130,125,67.5,72.5,-75,72.5,140,-145,-145,140,337.5,Raw,72,SBD,Open
2,Aira Abarra,,F,69.5,-110,115,120,120,65,70,-72.5,70,125,130,135,135,325,Raw,72,SBD,Open
3,Phanetavanh Outhavong,,F,67.55,-105,107.5,115,115,55,57.5,-62.5,57.5,115,122.5,135,135,307.5,Raw,72,SBD,Open
1,Louise Leston,,F,86.5,95,100,105,105,57.5,62.5,65,65,100,105,110,110,280,Raw,84+,SBD,Open
1,Samuel Chisari,,M,57.95,135,140,-142.5,140,95,102.5,-105,102.5,155,160,-162.5,160,402.5,Raw,59,SBD,Open
2,Kris Konski,,M,58.75,127.5,135,-140,135,75,80,82.5,82.5,-145,147.5,-155,147.5,365,Raw,59,SBD,Open
1,Tim Karagiannis,,M,73.9,-192.5,200,-207.5,200,105,110,-112.5,110,217.5,230,-240,230,540,Raw,74,SBD,Open
2,Vincent Foo,,M,72.25,130,135,140,140,-75,75,80,80,155,165,180,180,400,Raw,74,SBD,Open
1,Joshua Balia,,M,82.7,205,-215,-222.5,205,120,125,-130,125,225,235,250,250,580,Raw,83,SBD,Open
2,Sam Leadley,,M,80.4,192.5,200,-210,200,110,115,122.5,122.5,220,230,237.5,237.5,560,Raw,83,SBD,Open
3,Bill Tachtsis,,M,82.95,-200,205,210,210,110,-115,115,115,205,217.5,-225,217.5,542.5,Raw,83,SBD,Open
4,James Barlalotta,,M,81.8,185,192.5,-200,192.5,122.5,127.5,-132.5,127.5,210,215,220,220,540,Raw,83,SBD,Open
5,Andrew Basanisi,,M,81.3,165,175,190,190,112.5,120,-125,120,215,225,-240,225,535,Raw,83,SBD,Open
6,Benjamin Marriott,,M,81.5,177.5,185,-190,185,115,120,125,125,207.5,-212.5,-212.5,207.5,517.5,Raw,83,SBD,Open
7,Gregory Wentworth,,M,82.8,145,155,160,160,-112.5,112.5,115,115,215,225,-240,225,500,Raw,83,SBD,Open
8,Jonathan Mitchell,,M,82.15,165,175,185,185,85,90,-100,90,190,205,220,220,495,Raw,83,SBD,Open
9,Edwin John,,M,80.2,132.5,145,157.5,157.5,95,105,-112.5,105,167.5,190,200,200,462.5,Raw,83,SBD,Open
10,Thomas Schembri,,M,80.65,140,150,160,160,115,-117.5,-117.5,115,170,180,-190,180,455,Raw,83,SBD,Open
11,Darwin Chen,,M,81.75,-120,-120,120,120,70,77.5,-85,77.5,130,140,150,150,347.5,Raw,83,SBD,Open
DQ,Declan Boyle #1,,M,82.8,-205,-205,-205,,105,-112.5,112.5,112.5,240,-260,-260,240,,Raw,83,SBD,Open
1,Matt Slater,,M,91.25,205,215,-220,215,-165,165,175,175,225,235,-245,235,625,Raw,93,SBD,Open
2,Jonathan Stan,,M,90.6,190,200,-205,200,110,120,122.5,122.5,240,260,275,275,597.5,Raw,93,SBD,Open
3,James Webster,,M,90.35,-195,195,-205,195,110,120,-125,120,230,-240,-240,230,545,Raw,93,SBD,Open
4,Edward Stevens,,M,87.95,185,195,-200,195,112.5,-117.5,-117.5,112.5,200,210,217.5,217.5,525,Raw,93,SBD,Open
DQ,Leroy Mclennan,,M,91.5,190,195,200,200,110,115,-117.5,115,-175,-180,-180,,,Raw,93,SBD,Open
1,Adam Lam,,M,96.9,205,222.5,235,235,130,145,-152.5,145,225,242.5,250,250,630,Raw,105,SBD,Open
2,Michael Woodbridge,,M,101.45,202.5,215,-227.5,215,125,132.5,-140,132.5,240,260,-272.5,260,607.5,Raw,105,SBD,Open
3,Hyrum Joseph,,M,96,-155,-155,165,165,135,142.5,-147.5,142.5,225,240,-250,240,547.5,Raw,105,SBD,Open
4,Jeffery Westhorpe,,M,100.75,-175,180,190,190,105,110,-115,110,220,230,-240,230,530,Raw,105,SBD,Open
5,Alan Guy,,M,103.15,115,130,145,145,90,-100,-100,90,155,165,180,180,415,Raw,105,SBD,Open
1,Simon Baker,,M,105.6,170,185,195,195,140,152.5,162.5,162.5,-230,250,-267.5,250,607.5,Raw,120,SBD,Open
2,Cam Drendel,,M,115.6,-200,-200,215,215,100,-107.5,107.5,107.5,225,240,-250,240,562.5,Raw,120,SBD,Open
1,Sane Faatoe,,M,122.05,-140,-160,160,160,170,185,200,200,230,-255,-255,230,590,Raw,120+,SBD,Open
2,Steve Palmer,,M,137.85,135,150,170,170,115,127.5,-135,127.5,135,160,180,180,477.5,Raw,120+,SBD,Open
1,Alexander Cochrane-Davis,,M,87.7,260,275,285,285,130,162.5,172.5,172.5,220,232.5,-242.5,232.5,690,Single-ply,93,SBD,Open
1,Matthew McKay,,M,90.55,,,,,140,145,152.5,152.5,,,,,152.5,Single-ply,93,B,Open
